…
### 107年度薪資較104年度薪資高的職業有哪些?

``` r
Occ_Q1 <-select(Occ_Compare,大職業別,`大學-薪資.x`,`大學-薪資.y`)
Occ_Q1$薪資比較 <- as.numeric(Occ_Q1$`大學-薪資.y`) / as.numeric(Occ_Q1$`大學-薪資.x`)
Occ_Q1<-arrange(Occ_Q1,desc(薪資比較))
filter(Occ_Q1,Occ_Q1$薪資比較>=1)
```

    ## # A tibble: 105 x 4
    ##    大職業別                                 `大學-薪資.x` `大學-薪資.y` 薪資比較
    ##    <chr>                                            <dbl>         <dbl>    <dbl>
    ##  1 專業、科學及技術服務業-服務及銷售工作人員~         24423         28304     1.16
    ##  2 教育服務業-服務及銷售工作人員                    24324         27543     1.13
    ##  3 不動產業-技術員及助理專業人員                    27338         30914     1.13
    ##  4 住宿及餐飲業-服務及銷售工作人員                  23548         26111     1.11
    ##  5 藝術、娛樂及休閒服務業-事務支援人員              24244         26611     1.10
    ##  6 金融及保險業-技藝、機械設備操作及組裝人員~         30074         32997     1.10
    ##  7 教育服務業                                       25162         27582     1.10
    ##  8 教育服務業-事務支援人員                          23643         25908     1.10
    ##  9 用水供應及污染整治業-專業人員                    32179         34957     1.09
    ## 10 教育服務業-專業人員                              26615         28911     1.09
    ## # ... with 95 more rows
…
可以發現服務業佔大多數，前10名中就有7個服務業

### 提高超過5%的的職業有哪些?

``` r
filter(Occ_Q1,Occ_Q1$薪資比較>1.05)
```

    ## # A tibble: 53 x 4
    ##    大職業別                                 `大學-薪資.x` `大學-薪資.y` 薪資比較
    ##    <chr>                                            <dbl>         <dbl>    <dbl>
    ##  1 專業、科學及技術服務業-服務及銷售工作人員~         24423         28304     1.16
    ##  2 教育服務業-服務及銷售工作人員                    24324         27543     1.13
    ##  3 不動產業-技術員及助理專業人員                    27338         30914     1.13
    ##  4 住宿及餐飲業-服務及銷售工作人員                  23548         26111     1.11
    ##  5 藝術、娛樂及休閒服務業-事務支援人員              24244         26611     1.10
    ##  6 金融及保險業-技藝、機械設備操作及組裝人員~         30074         32997     1.10
    ##  7 教育服務業                                       25162         27582     1.10
    ##  8 教育服務業-事務支援人員                          23643         25908     1.10
    ##  9 用水供應及污染整治業-專業人員                    32179         34957     1.09
    ## 10 教育服務業-專業人員                              26615         28911     1.09
    ## # ... with 43 more rows
…
## 男女同工不同酬現況分析

男女同工不同酬一直是性別平等中很重要的問題，分析資料來源為103到106年度的大學畢業薪資。

### 104和107年度的大學畢業薪資資料，哪些行業男生薪資比女生薪資多?

``` r
Occ_Q2<-select(Occ_Compare,大職業別,`大學-女/男.x`,`大學-女/男.y`)

#104年 男生薪資比女生薪資多的職業的前10
arrange(Occ_Q2,`大學-女/男.x`)
```

    ## # A tibble: 140 x 3
    ##    大職業別                                        `大學-女/男.x` `大學-女/男.y`
    ##    <chr>                                                    <dbl>          <dbl>
    ##  1 電力及燃氣供應業-技藝、機械設備操作及組裝人員             91.7          100. 
    ##  2 教育服務業-服務及銷售工作人員                             91.9          100  
    ##  3 礦業及土石採取業-技術員及助理專業人員                     92.4           98.5
    ##  4 礦業及土石採取業-技藝、機械設備操作及組裝人員             93.1          100  
    ##  5 礦業及土石採取業                                          95.3           97.1
    ##  6 其他服務業-事務支援人員                                   95.5           99.3
    ##  7 營造業-技藝、機械設備操作及組裝人員                       95.6           99.6
    ##  8 用水供應及污染整治業-技藝、機械設備操作及組裝人員~           95.9           99.3
    ##  9 營造業                                                    96.4           97.5
    ## 10 教育服務業                                                96.4           98.6
    ## # ... with 130 more rows

``` r
#107年 男生薪資比女生薪資多的職業的前10名
arrange(Occ_Q2,`大學-女/男.y`)
```

    ## # A tibble: 140 x 3
    ##    大職業別                                `大學-女/男.x` `大學-女/男.y`
    ##    <chr>                                            <dbl>          <dbl>
    ##  1 礦業及土石採取業-專業人員                         97.0           96.0
    ##  2 電力及燃氣供應業-事務支援人員                     96.6           97.0
    ##  3 礦業及土石採取業                                  95.3           97.1
    ##  4 營造業                                            96.4           97.5
    ##  5 教育服務業-事務支援人員                           98.5           97.6
    ##  6 電力及燃氣供應業-服務及銷售工作人員               NA             97.7
    ##  7 營造業-技術員及助理專業人員                       97.0           97.8
    ##  8 用水供應及污染整治業-專業人員                     98.1           97.8
    ##  9 用水供應及污染整治業-服務及銷售工作人員          100             97.9
    ## 10 電力及燃氣供應業-專業人員                         98.3           98.2
    ## # ... with 130 more rows

### 哪些行業女生薪資比男生薪資多?

``` r
#104年 女生薪資比男生薪資多的職業的前10名
arrange(Occ_Q2,desc(`大學-女/男.x`))
```

    ## # A tibble: 140 x 3
    ##    大職業別                                        `大學-女/男.x` `大學-女/男.y`
    ##    <chr>                                                    <dbl>          <dbl>
    ##  1 專業、科學及技術服務業-技藝、機械設備操作及組裝人員~          100.            99.1
    ##  2 用水供應及污染整治業-服務及銷售工作人員                  100             97.9
    ##  3 不動產業-技藝、機械設備操作及組裝人員                    100            100  
    ##  4 醫療保健服務業-服務及銷售工作人員                        100             99.8
    ##  5 其他服務業-專業人員                                      100             98.3
    ##  6 住宿及餐飲業-技術員及助理專業人員                         99.9           99.7
    ##  7 支援服務業-技術員及助理專業人員                           99.9           98.4
    ##  8 住宿及餐飲業-服務及銷售工作人員                           99.9           99.8
    ##  9 用水供應及污染整治業-技術員及助理專業人員                 99.8           99.7
    ## 10 運輸及倉儲業-技藝、機械設備操作及組裝人員                 99.8           99.8
    ## # ... with 130 more rows

``` r
#107年 女生薪資比男生薪資多的職業的前10名
arrange(Occ_Q2,desc(`大學-女/男.y`))
```

    ## # A tibble: 140 x 3
    ##    大職業別                                      `大學-女/男.x` `大學-女/男.y`
    ##    <chr>                                                  <dbl>          <dbl>
    ##  1 礦業及土石採取業-技藝、機械設備操作及組裝人員           93.1           100 
    ##  2 資訊及通訊傳播業-技藝、機械設備操作及組裝人員           96.8           100 
    ##  3 金融及保險業-服務及銷售工作人員                         98.9           100 
    ##  4 金融及保險業-技藝、機械設備操作及組裝人員               98.3           100 
    ##  5 不動產業-服務及銷售工作人員                             99.7           100 
    ##  6 不動產業-技藝、機械設備操作及組裝人員                  100             100 
    ##  7 專業、科學及技術服務業-服務及銷售工作人員               99.3           100 
    ##  8 教育服務業-服務及銷售工作人員                           91.9           100 
    ##  9 電力及燃氣供應業-技藝、機械設備操作及組裝人員           91.7           100.
    ## 10 金融及保險業-專業人員                                   99.3           100.
    ## # ... with 130 more rows
…
